Example Clinical Trials Tables • rtables
…
ADAE2 <- do.call(rbind, l.adae)
ADAE2 <- ADAE2 %>%
  mutate(
    ARM = factor(ARM, levels = c("ARM A", "ARM B")),
    AEDECOD = as.factor(AEDECOD),
    AEBODSYS = as.factor(AEBODSYS),
    AETOXGR = factor(AETOXGR, levels = as.character(1:5))
  ) %>%
  select(USUBJID, ARM, AGE, SEX, AESEQ, AEDECOD, AEBODSYS, AETOXGR)

ADAE2

# A tibble: 3,118 x 8
   USUBJID ARM     AGE SEX   AESEQ AEDECOD           AEBODSYS            AETOXGR
     <dbl> <fct> <dbl> <fct> <int> <fct>             <fct>               <fct>  
 1       1 ARM A    45 F         1 NAUSEA (INTERMIT… GASTROINTESTINAL D… 2      
 2       1 ARM A    45 F         2 HEADACHE          NERVOUS SYSTEM DIS… 5      
 3       1 ARM A    45 F         3 HEADACHE          NERVOUS SYSTEM DIS… 5      
 4       1 ARM A    45 F         4 HEADACHE          NERVOUS SYSTEM DIS… 5      
 5       1 ARM A    45 F         5 HEADACHE          NERVOUS SYSTEM DIS… 5      
 6       1 ARM A    45 F         6 HEADACHE          NERVOUS SYSTEM DIS… 5      
 7       1 ARM A    45 F         7 HEADACHE          NERVOUS SYSTEM DIS… 5      
 8       1 ARM A    45 F         8 HEADACHE          NERVOUS SYSTEM DIS… 5      
 9       1 ARM A    45 F         9 HEADACHE          NERVOUS SYSTEM DIS… 5      
10       1 ARM A    45 F        10 FAECES SOFT       GASTROINTESTINAL D… 2      
# … with 3,108 more rows
…
